2020-12-24 17:30:41.8385 Info Message Template Auto Format enabled
2020-12-24 17:30:41.8569 Info Loading assembly: NLog.Web.AspNetCore
2020-12-24 17:30:41.9013 Info Adding target FileTarget(Name=allfile)
2020-12-24 17:30:41.9422 Info Validating config: TargetNames=allfile, ConfigItems=21, FilePath=/app/bin/Debug/netcoreapp3.1/nlog.config
2020-12-24 17:30:41.9852 Info Configuration initialized.
2020-12-24 17:30:41.9946 Info NLog, Version=4.0.0.0, Culture=neutral, PublicKeyToken=5120e14c03d0593c. File version: 4.7.2.11786. Product version: 4.7.2+024896f64b840a743d3fd89e29c2186681e7795f. GlobalAssemblyCache: False
2020-12-24 17:32:42.8105 Info Message Template Auto Format enabled
2020-12-24 17:32:42.8238 Info Loading assembly: NLog.Web.AspNetCore
2020-12-24 17:32:42.8790 Info Adding target FileTarget(Name=allfile)
2020-12-24 17:32:42.9254 Info Validating config: TargetNames=allfile, ConfigItems=21, FilePath=/app/bin/Debug/netcoreapp3.1/nlog.config
2020-12-24 17:32:42.9472 Info Configuration initialized.
2020-12-24 17:32:42.9503 Info NLog, Version=4.0.0.0, Culture=neutral, PublicKeyToken=5120e14c03d0593c. File version: 4.7.2.11786. Product version: 4.7.2+024896f64b840a743d3fd89e29c2186681e7795f. GlobalAssemblyCache: False
2020-12-24 17:37:49.5004 Info Message Template Auto Format enabled
2020-12-24 17:37:49.5121 Info Loading assembly: NLog.Web.AspNetCore
2020-12-24 17:37:49.5700 Info Adding target FileTarget(Name=allfile)
2020-12-24 17:37:49.6142 Info Validating config: TargetNames=allfile, ConfigItems=21, FilePath=/app/bin/Debug/netcoreapp3.1/nlog.config
2020-12-24 17:37:49.6422 Info Configuration initialized.
2020-12-24 17:37:49.6464 Info NLog, Version=4.0.0.0, Culture=neutral, PublicKeyToken=5120e14c03d0593c. File version: 4.7.2.11786. Product version: 4.7.2+024896f64b840a743d3fd89e29c2186681e7795f. GlobalAssemblyCache: False
2020-12-24 17:50:39.2867 Info Message Template Auto Format enabled
2020-12-24 17:50:39.3241 Info Loading assembly: NLog.Web.AspNetCore
2020-12-24 17:50:39.4236 Info Adding target FileTarget(Name=allfile)
2020-12-24 17:50:39.4776 Info Validating config: TargetNames=allfile, ConfigItems=21, FilePath=/app/bin/Debug/netcoreapp3.1/nlog.config
2020-12-24 17:50:39.5142 Info Configuration initialized.
2020-12-24 17:50:39.5203 Info NLog, Version=4.0.0.0, Culture=neutral, PublicKeyToken=5120e14c03d0593c. File version: 4.7.2.11786. Product version: 4.7.2+024896f64b840a743d3fd89e29c2186681e7795f. GlobalAssemblyCache: False
2020-12-24 17:54:13.0886 Info Message Template Auto Format enabled
2020-12-24 17:54:13.1082 Info Loading assembly: NLog.Web.AspNetCore
2020-12-24 17:54:13.2657 Info Adding target FileTarget(Name=allfile)
2020-12-24 17:54:13.3238 Info Validating config: TargetNames=allfile, ConfigItems=21, FilePath=/app/bin/Debug/netcoreapp3.1/nlog.config
2020-12-24 17:54:13.3516 Info Configuration initialized.
2020-12-24 17:54:13.3901 Info NLog, Version=4.0.0.0, Culture=neutral, PublicKeyToken=5120e14c03d0593c. File version: 4.7.2.11786. Product version: 4.7.2+024896f64b840a743d3fd89e29c2186681e7795f. GlobalAssemblyCache: False
